{
  "code": 0,
  "msg": "",
  "data": {
    "page": 1,
    "pageSize": 10,
    "total": 100,
    "totalPage": 10,
    "data": [
      {
        "name": "张三"
      },
      {
        "name": "李四"
      },
      {
        "name": "王五"
      },
      {
        "name": "赵六"
      },
      {
        "name": "田七"
      },
      {
        "name": "周八"
      },
      {
        "name": "吴九"
      },
      {
        "name": "郑十"
      },
      {
        "name": "孙十一"
      },
      {
        "name": "钱十二"
      }
    ]
  }
}